Species,SRA accesion number,Publication source
Aplysia californica,"SRR385786-SRR385790, SRR3857[94/96/99]",
Biomphalaria glabrata,"SRX000011, SRX0013[79/80], SRX014813, SRX014894-SRX014897",doi:10.1038/nature10382
Chiton olivaceus,SRA061738,doi:10.1186/1742-9994-9-33
Ennucula tenuis,SRR331123,doi:10.1038/nature10526
Gadila tolmiei,SRR331897,doi:10.1038/nature10526
Greenland neomeniomorph,SRR331902,doi:10.1038/nature10526
Haliotis kamtschatkana,SRR536765,doi:10.1111/1755-0998.12052
Ilyanassa obsoleta,SRR0634[18/19],doi: 10.1093/icb/icq121
Littorina littorea,SRR331945,doi:10.1038/nature10526
Lottia gigantea,,doi:10.1038/nature11696 [data downloadead from JGI]
Neomenia megatrapezata,SRR331899,doi:10.1038/nature10526
Octopus vulgaris,SRR331946,doi:10.1038/nature10526
Perotrochus lucaya,SRR330462,doi:10.1038/nature10526
Pinctada fucata,,doi:10.1093/dnares/dss005 [data downloaded from OIST]
Siphonaria naufragum,SRR330463,doi:10.1038/nature10526
Solemya velum,SRR330465,doi:10.1038/nature10526