*sample_name	*organism	*age	*biomaterial_provider	*sex	*tissue	bioproject_id	collected_by	collection_date	culture_collection	geo_loc_name	lat_lon	sample_title	specimen_voucher	breed	strain
ILLUMINA_0171-6-AMPHIPLICA	Amphiplica gordensis	N/A	N/A	N/A	three whole animals	PRJNA253054	Greg Rouse	28 Oct 2010		whalefall "Ruby", Monterey Bay Canyon, CA, USA	36.61333 N 122.43333 W	ILLUMINA_0171-6-AMPHIPLICA	SIO pending	N/A	N/A
NGW005	Doris kerguelenensis	N/A	N/A	N/A	foot	PRJNA253054	Nerida Wilson	22-Feb-09		South Orkney Islands, Scotia Arc, Antarctica	61.227 S 46.3965 W	ILLUMINA-FCBE01_0027_FC-8-ARCHITECTONICA	SIO-BIC M12127	N/A	N/A
MCZ 378854	Astarte sulcata	N/A	N/A	N/A	N/A	PRJNA253054	John D. Taylor	9 Sept 2010		Tjärnö Marine Lab, Koster fjord, Sweden		HWI-ST1233-52-D0WBWACXX-6-TGACCA	http://mczbase.mcz.harvard.edu/guid/MCZ:Mala:378854	N/A	N/A
YPM IZ 047929	Bathydoris clavigera	N/A	N/A	N/A	foot	PRJNA253054	Nerida Wilson	17 Feb 2009		South Orkney Islands, Scotia Arc, Antarctica	60.82971 S 44.49421 W	ILLUMINA-FCBE01_0026_FC-3-BATHYDORIS	YPM IZ 047929	N/A	N/A
ILLUMINA-3AB384_0041_FC-6-PHOLIDOSKEPIA	Pholidoskepia sp.	N/A	N/A	N/A	whole animal	PRJNA253054	Nerida Wilson	31 Oct 2009		San Diego Trough, San Diego, CA, USA	32.593967 N 117.493967 W	ILLUMINA-3AB384_0041_FC-6-PHOLIDOSKEPIA	SIO pending	N/A	N/A
CEF048	Clione antarctica	N/A	N/A	N/A	two whole animals	PRJNA253054	Nerida Wilson	20 Feb 2009		South Orkney Islands, Scotia Arc, Antarctica	61.759 S 45.456 W	HWI-ST625-51-C02UNACXX-2-ACAGTG	SIO pending	N/A	N/A
NGW004	Architectonica perspectiva	N/A	N/A	N/A	foot	PRJNA253054	Nerida Wilson	14 Nov 2009		Bulwer, Moreton Is, QLD, Australia	27.1667 S 153.4 E	ILLUMINA-FCBE01_0027_FC-7-DORIS	SIO-BIC M12321	N/A	N/A
FEG029	Euspira heros	N/A	N/A	N/A	foot	PRJNA253054	Freya Goetz	21 Jul 2009		Jamestown, Rhode Island, USA	41.48 N 71.36 W	HWI-ST625-51-C02UNACXX-2-ATCACG	http://mczbase.mcz.harvard.edu/guid/MCZ:Mala:381354	N/A	N/A
NGW008	Fiona pinnata	N/A	N/A	N/A	whole animal	PRJNA253054	Nerida Wilson	24-Aug-09		Home Beach, Stradbroke Is, QLD, Australia	27.422225 S 153.517075 E	HWI-ST625-51-C02UNACXX-2-ACTTGA	none 	N/A	N/A
AM C.469158.001	Granata imbricata	N/A	N/A	N/A	foot	PRJNA253054	Nerida Wilson	20 Jan 2011		Cruwee Bay, Sydney, NSW, Australia	33.99777 S 151.24499 E	ILLUMINA-3AB384-57-FC-8-GRANATA	AM C.469158.001	N/A	N/A
ILLUMINA-FCBE01_0027_FC-5-HAMINOEA	Haminoea antillarum	N/A	N/A	N/A	whole animal	PRJNA253054	Nerida Wilson	3 Mar 2010		Summerland Key, Florida Keys, Florida, USA	24.686464 N 81.443931 W	ILLUMINA-FCBE01_0027_FC-5-HAMINOEA	SIO pending	N/A	N/A
MCZ 378507	Hinea brasiliana	N/A	N/A	N/A	N/A	PRJNA253054	Nerida Wilson	21 Nov 2009		Hastings Point, NSW, Australia	28.3610 S 153.5792 E	HWI-EAS170_0019_FC-2-HINEA	http://mczbase.mcz.harvard.edu/guid/MCZ:Mala:378507	N/A	N/A
NGW012	Hydatina physis	N/A	N/A	N/A	foot	PRJNA253054	Nerida Wilson	21 Nov 2009		Hastings Point, NSW, Australia	28.3667 S 153.5833 E	HWI-ST625-51-C02UNACXX-2-TAGCTT	SIO-BIC M12322	N/A	N/A
NGW003	Janthina janthina	N/A	N/A	N/A	foot	PRJNA253054	Nerida Wilson	23 Aug 2009		Home Beach, North Stradbroke Is, QLD, Australia	27.4222 S 153.517 E	HWI-ST625-51-C02UNACXX-2-CAGATC	SIO-BIC M13496	N/A	N/A
CEF54	Laevipilina hyalina	N/A	N/A	N/A	three whole animals	PRJNA253054	Nerida Wilson	28 Oct 2007		outh of San Nicolas Island, CA, USA	32.9833 N 119.5467 W	HWI-ST625-61-C02G3ACxx-6-GATCAG	SIO-BIC M11891-11896	N/A	N/A
ILLUMINA-3AB384_0036_FC-7-LEPETODRILUS	Lepetodrilus fucensis	N/A	N/A	N/A	gills	PRJNA253054	Amanda Bates	2005		Juan de Fuca Ridge, Axial Volcano, 1570m	45.56 N 130.00 W	ILLUMINA-3AB384_0036_FC-7-LEPETODRILUS	none	N/A	N/A
MCZ 381353	Mercenaria campechiensis	N/A	N/A	N/A	N/A	PRJNA253054	Gonzalo Giribet, Nerida Wilson et al.	26 Oct 2007		off Beaufort, North Carolina, USA		ILLUMINA-194-B00YPABXX-8-CGATGT	http://mczbase.mcz.harvard.edu/guid/MCZ:Mala:381353	N/A	N/A
ILLUMINA-3AB384_0032_FC-3-MICROHEDYLE	Microhedyle glandulifera	N/A	N/A	N/A	180 whole animals	PRJNA253054	Michael Schrödl / Bastian Brenzinger	August, 2010 		Cape Kemenjak, Croatia, Mediterranean 	44.772 N 13.918 E	ILLUMINA-3AB384_0032_FC-3-MICROHEDYLE	none	N/A	N/A
FEG0365	Monodonta labio	N/A	N/A	N/A	most of one animal	PRJNA253054	Nerida Wilson	25 Jun 2011		Woodwark Bay, Whitsundays, QLD, Australia	20.188242 S 148.676439 E	HWI-ST625-73-C0JUVACXX-5-TTAGGC	none	N/A	N/A
BivAToL 84.1a	Myochama anomioides	N/A	N/A	N/A	N/A	PRJNA253054	BivaToL team	15 Oct 2008		W. side of Moreton Island, North Stradbroke Island, Queensland, Australia	27.1669 S 153.2947 E	HWI-ST1233-52-D0WBWACXX-7-CTTGTA	BivAToL 84.1a	N/A	N/A
MCZ 379092	Neotrigonia margaritacea	N/A	N/A	N/A	N/A	PRJNA253054	G. Giribet, Ana Glavinic	6 Oct 2011		Christie's beach, South Australia, Australia	35.146 S 138.440 E	ILLUMINA-322-D0UFKACXX-8-CGATGT	http://mczbase.mcz.harvard.edu/guid/MCZ:Mala:379092	N/A	N/A
MCZ 378619	Nerita peloronta	N/A	N/A	N/A	foot	PRJNA253054	G. Giribet, R. Bieler	16 Nov 2009		West Summerland Key, Florida, USA	24.656 N 81.302 W	ILLUMINA-3AB384_0032_FC-6-NERITA	http://mczbase.mcz.harvard.edu/guid/MCZ:Mala:378619	N/A	N/A
ILLUMINA-FCBE01_0026_FC-2-ONCHIDELLA	Onchidella floridana	N/A	N/A	N/A	most of one animal	PRJNA253054	Nerida Wilson	1 Mar 2010		Big Pine Key, Florida Keys, FL, USA	24.657114 N  81.302697 W	ILLUMINA-FCBE01_0026_FC-2-ONCHIDELLA	SIO-BIC M12327	N/A	N/A
NGW013	Ophicardelus sulcatus	N/A	N/A	N/A	most of one animal	PRJNA253054	Nerida Wilson	12 Nov 2009		Brunswick Heads, NSW, Australia	28.5330 S 153.5500 E	HWI-ST625-51-C02UNACXX-2-GGCTAC	SIO-BIC M12331	N/A	N/A
NGW010	Oxynoe viridis	N/A	N/A	N/A	foot	PRJNA253054	Nerida Wilson	21 Nov 2009		Hastings Point, NSW, Australia	28.3667 S 153.5833 E	HWI-ST625-51-C02UNACXX-2-GATCAG	SIO-BIC M12328	N/A	N/A
DNA102471	Paralepetopsis sp.	N/A	N/A	N/A	N/A	PRJNA253054	Erik E. Cordes			Gulf of Mexico, USA		ILLUMINA-3AB384_0036_FC-8-PARALEPETOPSIS	http://mczbase.mcz.harvard.edu/guid/MCZ:Mala:378647 [ex DNA102471]	N/A	N/A
FEG0366	Phallomedusa solida	N/A	N/A	N/A	most of one animal	PRJNA253054	Nerida Wilson	26 Aug 2011		Lane Cove, Sydney, NSW, Australia	33.807778 S 151.142778 E	HWI-ST625-73-C0JUVACXX-5-ACTTGA	AM C.477889	N/A	N/A
FEG0364	Phasianella ventricosa	N/A	N/A	N/A	most of one animal	PRJNA253054	Nerida Wilson	19 Aug 2011		Shoreham, Westernport Bay, VIC, Australia	38.438 S 145.787 E	HWI-ST625-73-C0JUVACXX-5-CGATGT	SIO-BIC M13499	N/A	N/A
NGW007	Philine angasi	N/A	N/A	N/A	foot	PRJNA253054	Nerida Wilson	14 Nov 2009		Bulwer, Moreton Is, QLD, Australia	27.1667 S 153.4 E	HWI-EAS170_0019_FC-5-PHILINE	SIO-BIC M12324	N/A	N/A
SIO-BIC M12319	Pleurobranchaea californica	N/A	N/A	N/A	N/A	PRJNA253054	SIO	2 Feb 2010		Blacks Beach, La Jolla, CA, USA	32.75 N 117.37 W	ILLUMINA-FCBE01_0026_FC-1-PLEUROBRANCHAEA	SIO-BIC M12319	N/A	N/A
FEG0317	Pomacea diffusa	N/A	N/A	N/A	foot	PRJNA253054			Aqua Life Imports			HWI-ST625-73-C0JUVACXX-5-TAGCTT	MCZ 381356	N/A	N/A
FEG0363	Prothalotia lehmanni	N/A	N/A	N/A	most of one animal	PRJNA253054	Nerida Wilson	19 Aug 2011		Shoreham, Westernport Bay, Victoria, Australia	38.438 S 145.787 E	HWI-ST625-73-C0JUVACXX-5-ATCACG	SIO-BIC M13500	N/A	N/A
DNA102472	Pyropelta sp.	N/A	N/A	N/A	N/A	PRJNA253054	Erik E. Cordes			Gulf of Mexico, USA		ILLUMINA-3AB384-57-FC-7-PYROPELTA	http://mczbase.mcz.harvard.edu/guid/MCZ:Mala:378705 [ex DNA102472]	N/A	N/A
SIO-BIC M12330	Rissoella caribaea	N/A	N/A	N/A	several whole animals	PRJNA253054	Nerida Wilson	1 Mar 2010		Summerland Key, Florida Keys, FL, USA	24.686431 N 81.443917 W	ILLUMINA-FCBE01_0027_FC-6-RISSOELLA	SIO-BIC M12330	N/A	N/A
ILLUMINA-3AB384_0036_FC-6-RUBYSPIRA	Rubyspira osteovora	N/A	N/A	N/A	N/A	PRJNA253054	Greg Rouse	25 Oct 2009		whalefall "Ruby", Monterey Bay Canyon, CA, USA	36.61333 N 122.43333 W	ILLUMINA-3AB384_0036_FC-6-RUBYSPIRA	SIO pending	N/A	N/A
HWI-EAS170_0019_FC-1-STRUBELLIA	Strubellia wawrai	N/A	N/A	N/A	two whole animals	PRJNA253054	Katharina Jörger	October, 2007		Kohove River, Guadalcanal, Solomon Islands	9.422 S 159.903 E	HWI-EAS170_0019_FC-1-STRUBELLIA	none	N/A	N/A
SIO-BIC M13501	Titiscania limacina	N/A	N/A	N/A	most of one animal	PRJNA253054	Nerida Wilson	18 Nov 2010		reef flat, S end of Moorea	17.60311 S 149.83885 W	ILLUMINA-3AB384_0032_FC-5-TITISCANIA	SIO-BIC M13501	N/A	N/A
SIO-BIC M13497	Turbonilla sp.	N/A	N/A	N/A	most of one animal	PRJNA253054	Nerida Wilson	13 Nov 2010		public beach, Moorea	17.49152 S 149.85069 W	ILLUMINA-3AB384_0032_FC-2-TURBONILLA	SIO-BIC M13497	N/A	N/A
CEF055	Tylodina fungina	N/A	N/A	N/A	foot	PRJNA253054	Phil Zerofski	July 2011		Mission Bay, San Diego, CA, USA	32.761022 N 117.245228 W	HWI-ST625-51-C02UNACXX-2-GCCAAT	SIO pending	N/A	N/A
FEG031	Urosalpinx cinerea	N/A	N/A	N/A	N/A	PRJNA253054	Freya Goetz	21 Jul 2009		Jamestown, Rhode Island, USA	41.48 N 71.36 W	HWI-ST625-51-C02UNACXX-2-TTAGGC	http://mczbase.mcz.harvard.edu/guid/MCZ:Mala:381355	N/A	N/A